<define-tag pagetitle>DSA-4784-1 wordpress</define-tag>
<define-tag report_date>2020-11-06</define-tag>
<define-tag secrefs>CVE-2020-28032 CVE-2020-28033 CVE-2020-28034 CVE-2020-28035 CVE-2020-28036 CVE-2020-28037 CVE-2020-28038 CVE-2020-28039 CVE-2020-28040 Bug#971914 Bug#973562</define-tag>
<define-tag packages>wordpress</define-tag>
<define-tag isvulnerable>yes</define-tag>
<define-tag fixed>yes</define-tag>
<define-tag fixed-section>no</define-tag>

#use wml::debian::security



</dl>
