<define-tag pagetitle>DLA-2736-1 lynx</define-tag>
<define-tag report_date>2021-08-09</define-tag>
<define-tag secrefs>CVE-2021-38165</define-tag>
<define-tag packages>lynx</define-tag>
<define-tag isvulnerable>yes</define-tag>
<define-tag fixed>yes</define-tag>
<define-tag fixed-section>no</define-tag>

#use wml::debian::security
