<define-tag pagetitle>DLA-2523-1 imagemagick</define-tag>
<define-tag report_date>2021-01-12</define-tag>
<define-tag secrefs>CVE-2017-14528 CVE-2020-19667 CVE-2020-25665 CVE-2020-25674 CVE-2020-27560 CVE-2020-27750 CVE-2020-27760 CVE-2020-27763 CVE-2020-27765 CVE-2020-27773 CVE-2020-29599 Bug#878544 Bug#972797 Bug#977205</define-tag>
<define-tag packages>imagemagick</define-tag>
<define-tag isvulnerable>yes</define-tag>
<define-tag fixed>yes</define-tag>
<define-tag fixed-section>no</define-tag>

#use wml::debian::security

