<define-tag pagetitle>DLA-977-1 freeradius</define-tag>
<define-tag report_date>2017-6-5</define-tag>
<define-tag secrefs>CVE-2014-2015 CVE-2015-4680 CVE-2017-9148 Bug#742820 Bug#789623 Bug#863673</define-tag>
<define-tag packages>freeradius</define-tag>
<define-tag isvulnerable>yes</define-tag>
<define-tag fixed>yes</define-tag>
<define-tag fixed-section>no</define-tag>

#use wml::debian::security

