<define-tag pagetitle>DLA-1004-1 drupal7</define-tag>
<define-tag report_date>2017-6-28</define-tag>
<define-tag secrefs>CVE-2017-6922</define-tag>
<define-tag packages>drupal7</define-tag>
<define-tag isvulnerable>yes</define-tag>
<define-tag fixed>yes</define-tag>
<define-tag fixed-section>no</define-tag>

#use wml::debian::security

