<define-tag pagetitle>DLA-2311-1 zabbix</define-tag>
<define-tag report_date>2020-08-03</define-tag>
<define-tag secrefs>CVE-2020-15803</define-tag>
<define-tag packages>zabbix</define-tag>
<define-tag isvulnerable>yes</define-tag>
<define-tag fixed>yes</define-tag>
<define-tag fixed-section>no</define-tag>

#use wml::debian::security
