<define-tag pagetitle>DLA-1643-1 krb5</define-tag>
<define-tag report_date>2019-1-25</define-tag>
<define-tag secrefs>CVE-2018-5729 CVE-2018-5730 CVE-2018-20217</define-tag>
<define-tag packages>krb5</define-tag>
<define-tag isvulnerable>yes</define-tag>
<define-tag fixed>yes</define-tag>
<define-tag fixed-section>no</define-tag>

#use wml::debian::security

