<define-tag pagetitle>DLA-546-1 clamav</define-tag>
<define-tag report_date>2016-7-8</define-tag>
<define-tag packages>clamav</define-tag>
<define-tag isvulnerable>yes</define-tag>
<define-tag fixed>yes</define-tag>
<define-tag fixed-section>no</define-tag>

#use wml::debian::security

