<define-tag pagetitle>DLA-614-1 xen</define-tag>
<define-tag report_date>2016-9-9</define-tag>
<define-tag secrefs>CVE-2016-7092 CVE-2016-7094</define-tag>
<define-tag packages>xen</define-tag>
<define-tag isvulnerable>yes</define-tag>
<define-tag fixed>yes</define-tag>
<define-tag fixed-section>no</define-tag>

#use wml::debian::security

